('D:\\work\\Development\\New\\gmvehiclesim\\Components\\python\\Extensions\\build\\replay\\out00-PKG.pkg',
 {'BINARY': 1,
  'DATA': 1,
  'EXECUTABLE': 1,
  'EXTENSION': 1,
  'PYMODULE': 1,
  'PYSOURCE': 1,
  'PYZ': 0},
 [('out00-PYZ.pyz',
   'D:\\work\\Development\\New\\gmvehiclesim\\Components\\python\\Extensions\\build\\replay\\out00-PYZ.pyz',
   'PYZ'),
  ('struct',
   'D:\\work\\Development\\New\\gmvehiclesim\\Components\\python\\Extensions\\build\\replay\\localpycos\\struct.pyo',
   'PYMODULE'),
  ('pyimod01_os_path',
   'D:\\work\\Development\\New\\gmvehiclesim\\Components\\python\\Extensions\\build\\replay\\localpycos\\pyimod01_os_path.pyc',
   'PYMODULE'),
  ('pyimod02_archive',
   'D:\\work\\Development\\New\\gmvehiclesim\\Components\\python\\Extensions\\build\\replay\\localpycos\\pyimod02_archive.pyc',
   'PYMODULE'),
  ('pyimod03_importers',
   'D:\\work\\Development\\New\\gmvehiclesim\\Components\\python\\Extensions\\build\\replay\\localpycos\\pyimod03_importers.pyc',
   'PYMODULE'),
  ('pyiboot01_bootstrap',
   'C:\\Program Files (x86)\\Microsoft Visual '
   'Studio\\Shared\\Python36_64\\lib\\site-packages\\PyInstaller\\loader\\pyiboot01_bootstrap.py',
   'PYSOURCE'),
  ('pyi_rth_multiprocessing',
   'C:\\Program Files (x86)\\Microsoft Visual '
   'Studio\\Shared\\Python36_64\\lib\\site-packages\\PyInstaller\\loader\\rthooks\\pyi_rth_multiprocessing.py',
   'PYSOURCE'),
  ('replay',
   'D:\\work\\Development\\New\\gmvehiclesim\\Components\\python\\Extensions\\replay.py',
   'PYSOURCE'),
  ('python36.dll',
   'C:\\Program Files (x86)\\Microsoft Visual '
   'Studio\\Shared\\Python36_64\\python36.dll',
   'BINARY'),
  ('VCRUNTIME140.dll',
   'C:\\Program Files (x86)\\Microsoft Visual '
   'Studio\\Shared\\Python36_64\\VCRUNTIME140.dll',
   'BINARY'),
  ('_decimal',
   'C:\\Program Files (x86)\\Microsoft Visual '
   'Studio\\Shared\\Python36_64\\DLLs\\_decimal.pyd',
   'EXTENSION'),
  ('_ctypes',
   'C:\\Program Files (x86)\\Microsoft Visual '
   'Studio\\Shared\\Python36_64\\DLLs\\_ctypes.pyd',
   'EXTENSION'),
  ('_multiprocessing',
   'C:\\Program Files (x86)\\Microsoft Visual '
   'Studio\\Shared\\Python36_64\\DLLs\\_multiprocessing.pyd',
   'EXTENSION'),
  ('_ssl',
   'C:\\Program Files (x86)\\Microsoft Visual '
   'Studio\\Shared\\Python36_64\\DLLs\\_ssl.pyd',
   'EXTENSION'),
  ('unicodedata',
   'C:\\Program Files (x86)\\Microsoft Visual '
   'Studio\\Shared\\Python36_64\\DLLs\\unicodedata.pyd',
   'EXTENSION'),
  ('pyexpat',
   'C:\\Program Files (x86)\\Microsoft Visual '
   'Studio\\Shared\\Python36_64\\DLLs\\pyexpat.pyd',
   'EXTENSION'),
  ('_hashlib',
   'C:\\Program Files (x86)\\Microsoft Visual '
   'Studio\\Shared\\Python36_64\\DLLs\\_hashlib.pyd',
   'EXTENSION'),
  ('_bz2',
   'C:\\Program Files (x86)\\Microsoft Visual '
   'Studio\\Shared\\Python36_64\\DLLs\\_bz2.pyd',
   'EXTENSION'),
  ('_lzma',
   'C:\\Program Files (x86)\\Microsoft Visual '
   'Studio\\Shared\\Python36_64\\DLLs\\_lzma.pyd',
   'EXTENSION'),
  ('_socket',
   'C:\\Program Files (x86)\\Microsoft Visual '
   'Studio\\Shared\\Python36_64\\DLLs\\_socket.pyd',
   'EXTENSION'),
  ('select',
   'C:\\Program Files (x86)\\Microsoft Visual '
   'Studio\\Shared\\Python36_64\\DLLs\\select.pyd',
   'EXTENSION'),
  ('base_library.zip',
   'D:\\work\\Development\\New\\gmvehiclesim\\Components\\python\\Extensions\\build\\replay\\base_library.zip',
   'DATA'),
  ('replay.exe.manifest',
   'D:\\work\\Development\\New\\gmvehiclesim\\Components\\python\\Extensions\\build\\replay\\replay.exe.manifest',
   'BINARY'),
  ('pyi-windows-manifest-filename replay.exe.manifest', '', 'OPTION')],
 False,
 False,
 False)
