^E:\WORK\PROJECTS\GMV-WORK\GMV\GMV\FSAWRAPPER\FSAWRAPPER\STDAFX.CPP
E:\WORK\PROJECTS\GMV-WORK\GMV\GMV\FSAWRAPPER\FSAWRAPPER\WIN32\DEBUG\FSAWRAPPER.PCH
E:\WORK\PROJECTS\GMV-WORK\GMV\GMV\FSAWRAPPER\FSAWRAPPER\WIN32\DEBUG\VC142.PDB
E:\WORK\PROJECTS\GMV-WORK\GMV\GMV\FSAWRAPPER\FSAWRAPPER\WIN32\DEBUG\STDAFX.OBJ
^E:\WORK\PROJECTS\GMV-WORK\GMV\GMV\FSAWRAPPER\FSAWRAPPER\ASSEMBLYINFO.CPP|E:\WORK\PROJECTS\GMV-WORK\GMV\GMV\FSAWRAPPER\FSAWRAPPER\FSAWRAPPER.CPP
E:\WORK\PROJECTS\GMV-WORK\GMV\GMV\FSAWRAPPER\FSAWRAPPER\WIN32\DEBUG\VC142.PDB
E:\WORK\PROJECTS\GMV-WORK\GMV\GMV\FSAWRAPPER\FSAWRAPPER\WIN32\DEBUG\FSAWRAPPER.OBJ
E:\WORK\PROJECTS\GMV-WORK\GMV\GMV\FSAWRAPPER\FSAWRAPPER\WIN32\DEBUG\ASSEMBLYINFO.OBJ
^E:\WORK\PROJECTS\GMV-WORK\GMV\GMV\FSAWRAPPER\FSAWRAPPER\ASSEMBLYINFO.CPP
E:\WORK\PROJECTS\GMV-WORK\GMV\GMV\FSAWRAPPER\FSAWRAPPER\WIN32\DEBUG\VC142.PDB
^E:\WORK\PROJECTS\GMV-WORK\GMV\GMV\FSAWRAPPER\FSAWRAPPER\FSAWRAPPER.CPP
E:\WORK\PROJECTS\GMV-WORK\GMV\GMV\FSAWRAPPER\FSAWRAPPER\WIN32\DEBUG\VC142.PDB
^C:\USERS\OEM\APPDATA\LOCAL\TEMP\.NETFRAMEWORK,VERSION=V4.6.ASSEMBLYATTRIBUTES.CPP
E:\WORK\PROJECTS\GMV-WORK\GMV\GMV\FSAWRAPPER\FSAWRAPPER\WIN32\DEBUG\VC142.PDB
E:\WORK\PROJECTS\GMV-WORK\GMV\GMV\FSAWRAPPER\FSAWRAPPER\WIN32\DEBUG\.NETFRAMEWORK,VERSION=V4.6.ASSEMBLYATTRIBUTES.OBJ
E:\WORK\PROJECTS\GMV-WORK\GMV\GMV\FSAWRAPPER\FSAWRAPPER\WIN32\DEBUG\.NETFRAMEWORK,VERSION=V4.6.ASSEMBLYATTRIBUTES.ASM
