^E:\WORK\PROJECTS\GMV-WORK\GMV\GMV\FSAWRAPPER\FSAWRAPPER\WIN32\DEBUG\.NETFRAMEWORK,VERSION=V4.6.ASSEMBLYATTRIBUTES.OBJ|E:\WORK\PROJECTS\GMV-WORK\GMV\GMV\FSAWRAPPER\FSAWRAPPER\WIN32\DEBUG\APP.RES|E:\WORK\PROJECTS\GMV-WORK\GMV\GMV\FSAWRAPPER\FSAWRAPPER\WIN32\DEBUG\ASSEMBLYINFO.OBJ|E:\WORK\PROJECTS\GMV-WORK\GMV\GMV\FSAWRAPPER\FSAWRAPPER\WIN32\DEBUG\FSAWRAPPER.OBJ|E:\WORK\PROJECTS\GMV-WORK\GMV\GMV\FSAWRAPPER\FSAWRAPPER\WIN32\DEBUG\STDAFX.OBJ
E:\WORK\PROJECTS\GMV-WORK\GMV\GMV\FSAWRAPPER\FSAWRAPPER\WIN32\DEBUG\FSAWRAPPER.DLL
E:\WORK\PROJECTS\GMV-WORK\GMV\GMV\FSAWRAPPER\FSAWRAPPER\WIN32\DEBUG\FSAWRAPPER.PDB
