('D:\\work\\Development\\New\\gmvehiclesim\\Components\\python\\Extensions\\dist\\LIN_Testing.exe',
 True,
 True,
 False,
 None,
 None,
 False,
 False,
 '<?xml version="1.0" encoding="UTF-8" standalone="yes"?><assembly manifestVersion="1.0" xmlns="urn:schemas-microsoft-com:asm.v1"><assemblyIdentity name="LIN_Testing" processorArchitecture="amd64" type="win32" version="1.0.0.0"/><dependency><dependentAssembly><assemblyIdentity language="*" name="Microsoft.Windows.Common-Controls" processorArchitecture="*" publicKeyToken="6595b64144ccf1df" type="win32" version="6.0.0.0"/><compatibility xmlns="urn:schemas-microsoft-com:compatibility.v1"/></dependentAssembly></dependency><compatibility xmlns="urn:schemas-microsoft-com:compatibility.v1"><application><supportedOS Id="{e2011457-1546-43c5-a5fe-008deee3d3f0}"/><supportedOS Id="{35138b9a-5d96-4fbd-8e2d-a2440225f93a}"/><supportedOS Id="{4a2f28e3-53b9-4441-ba9c-d69d4a4a6e38}"/><supportedOS Id="{1f676c76-80e1-4239-95bb-83d0f6d0da78}"/><supportedOS Id="{8e0f7a12-bfb3-4fe8-b9a5-48fd50a15a9a}"/></application></compatibility></assembly>',
 True,
 'LIN_Testing.pkg',
 [('out00-PYZ.pyz',
   'D:\\work\\Development\\New\\gmvehiclesim\\Components\\python\\Extensions\\build\\LIN_Testing\\out00-PYZ.pyz',
   'PYZ'),
  ('struct',
   'D:\\work\\Development\\New\\gmvehiclesim\\Components\\python\\Extensions\\build\\LIN_Testing\\localpycos\\struct.pyo',
   'PYMODULE'),
  ('pyimod01_os_path',
   'D:\\work\\Development\\New\\gmvehiclesim\\Components\\python\\Extensions\\build\\LIN_Testing\\localpycos\\pyimod01_os_path.pyc',
   'PYMODULE'),
  ('pyimod02_archive',
   'D:\\work\\Development\\New\\gmvehiclesim\\Components\\python\\Extensions\\build\\LIN_Testing\\localpycos\\pyimod02_archive.pyc',
   'PYMODULE'),
  ('pyimod03_importers',
   'D:\\work\\Development\\New\\gmvehiclesim\\Components\\python\\Extensions\\build\\LIN_Testing\\localpycos\\pyimod03_importers.pyc',
   'PYMODULE'),
  ('pyiboot01_bootstrap',
   'C:\\Program Files (x86)\\Microsoft Visual '
   'Studio\\Shared\\Python36_64\\lib\\site-packages\\PyInstaller\\loader\\pyiboot01_bootstrap.py',
   'PYSOURCE'),
  ('pyi_rth_multiprocessing',
   'C:\\Program Files (x86)\\Microsoft Visual '
   'Studio\\Shared\\Python36_64\\lib\\site-packages\\PyInstaller\\loader\\rthooks\\pyi_rth_multiprocessing.py',
   'PYSOURCE'),
  ('LIN_Testing',
   'D:\\work\\Development\\New\\gmvehiclesim\\Components\\python\\Extensions\\LIN_Testing.py',
   'PYSOURCE'),
  ('VCRUNTIME140.dll',
   'C:\\Program Files (x86)\\Microsoft Visual '
   'Studio\\Shared\\Python36_64\\VCRUNTIME140.dll',
   'BINARY'),
  ('python36.dll',
   'C:\\Program Files (x86)\\Microsoft Visual '
   'Studio\\Shared\\Python36_64\\python36.dll',
   'BINARY'),
  ('_decimal',
   'C:\\Program Files (x86)\\Microsoft Visual '
   'Studio\\Shared\\Python36_64\\DLLs\\_decimal.pyd',
   'EXTENSION'),
  ('_ctypes',
   'C:\\Program Files (x86)\\Microsoft Visual '
   'Studio\\Shared\\Python36_64\\DLLs\\_ctypes.pyd',
   'EXTENSION'),
  ('_multiprocessing',
   'C:\\Program Files (x86)\\Microsoft Visual '
   'Studio\\Shared\\Python36_64\\DLLs\\_multiprocessing.pyd',
   'EXTENSION'),
  ('_ssl',
   'C:\\Program Files (x86)\\Microsoft Visual '
   'Studio\\Shared\\Python36_64\\DLLs\\_ssl.pyd',
   'EXTENSION'),
  ('unicodedata',
   'C:\\Program Files (x86)\\Microsoft Visual '
   'Studio\\Shared\\Python36_64\\DLLs\\unicodedata.pyd',
   'EXTENSION'),
  ('pyexpat',
   'C:\\Program Files (x86)\\Microsoft Visual '
   'Studio\\Shared\\Python36_64\\DLLs\\pyexpat.pyd',
   'EXTENSION'),
  ('_hashlib',
   'C:\\Program Files (x86)\\Microsoft Visual '
   'Studio\\Shared\\Python36_64\\DLLs\\_hashlib.pyd',
   'EXTENSION'),
  ('_bz2',
   'C:\\Program Files (x86)\\Microsoft Visual '
   'Studio\\Shared\\Python36_64\\DLLs\\_bz2.pyd',
   'EXTENSION'),
  ('_lzma',
   'C:\\Program Files (x86)\\Microsoft Visual '
   'Studio\\Shared\\Python36_64\\DLLs\\_lzma.pyd',
   'EXTENSION'),
  ('_socket',
   'C:\\Program Files (x86)\\Microsoft Visual '
   'Studio\\Shared\\Python36_64\\DLLs\\_socket.pyd',
   'EXTENSION'),
  ('select',
   'C:\\Program Files (x86)\\Microsoft Visual '
   'Studio\\Shared\\Python36_64\\DLLs\\select.pyd',
   'EXTENSION'),
  ('base_library.zip',
   'D:\\work\\Development\\New\\gmvehiclesim\\Components\\python\\Extensions\\build\\LIN_Testing\\base_library.zip',
   'DATA'),
  ('LIN_Testing.exe.manifest',
   'D:\\work\\Development\\New\\gmvehiclesim\\Components\\python\\Extensions\\build\\LIN_Testing\\LIN_Testing.exe.manifest',
   'BINARY'),
  ('pyi-windows-manifest-filename LIN_Testing.exe.manifest', '', 'OPTION')],
 [],
 False,
 False,
 1573657684,
 [('run_d.exe',
   'C:\\Program Files (x86)\\Microsoft Visual '
   'Studio\\Shared\\Python36_64\\lib\\site-packages\\PyInstaller\\bootloader\\Windows-64bit\\run_d.exe',
   'EXECUTABLE')])
